{
    "page": {
      "size": 10,
      "totalElements": 426,
      "totalPages": 43,
      "pageNumber": 1
    },
    "data": [
      {
        "customer": {
          "name": "Monir Hossain",
          "phone": "+8801939626309",
          "email": "arjumonirhossin@gmail.com",
          "address": "Dhaka",
          "customer": {
            "_id": "65003389549c6230ba244ae1",
            "isBlacklisted": false,
            "name": "Monir",
            "id": "65003389549c6230ba244ae1"
          }
        },
        "amount": {
          "cartTotal": 1165,
          "discounts": [],
          "charges": [
            {
              "name": "Shipping Charge (In Dhaka)",
              "amount": 70,
              "_id": "6811b8609021378d63f096ef",
              "id": "6811b8609021378d63f096ef"
            }
          ],
          "total": 1235
        },
        "shippingAddress": {
          "streetAddress": "Dhaka",
          "city": "Chittagong",
          "district": "Chittagong",
          "zipCode": null
        },
        "utm": {
          "_fbp": "fb.1.1745991417784.60926576514848808"
        },
        "_id": "6811b8609021378d63f096ed",
        "invoiceID": "ms-446",
        "status": "pending",
        "labels": [],
        "contactId": "67108b16855499fca7b9f6ec",
        "cart": [
          {
            "product": {
              "product": {
                "feed": {
                  "size": null,
                  "color": null,
                  "gender": null,
                  "age_group": null
                },
                "type": "default",
                "bundleProductIds": [],
                "_id": "67ac2d2ae18cebdef42ff4f9",
                "name": "Josh premium-trouser-grey-m",
                "visibility": "public",
                "slug": "josh-bj-ash-xl",
                "summary": "Hello tesst product page",
                "description": "░&nbsp;░",
                "metaKeywords": null,
                "metaDescription": null,
                "category": "6628a001ccc5f8039b7733b9",
                "brand": "662f86248dc0cf26d20f6b2e",
                "sku": "premium-trouser-grey-m",
                "weight": null,
                "labels": [],
                "isFeatured": false,
                "primaryPhoto": "67ac2d15e18cebdef42ff28c",
                "media": [
                  "67ac2d15e18cebdef42ff28c"
                ],
                "listPrice": 1165,
                "actualPrice": 1165,
                "options": [],
                "isPreOrder": false,
                "stock": 98,
                "stocks": [],
                "tabs": [],
                "attributes": [],
                "collections": [
                  "668a5d83f29bc973828c72de"
                ],
                "showFeed": true,
                "shop": "64eece5330e4562e48de0b5a",
                "user": "64eece1a30e4568f39de0b1e",
                "stepPrices": [],
                "createAt": "2025-02-12T05:10:02.876Z",
                "updateAt": "2025-04-09T10:04:26.779Z",
                "__v": 6,
                "id": "67ac2d2ae18cebdef42ff4f9"
              },
              "name": "Josh premium-trouser-grey-m",
              "sku": "premium-trouser-grey-m",
              "photo": {
                "_id": "67ac2d15e18cebdef42ff28c",
                "fileName": "josh-3.webp",
                "context": "product-square",
                "src": "https://bd-1.edkncdn.net/img/400x400/stores/64eece5330e4562e48de0b5a/product-square/1739336980234-YQsyyIcX8_KJa8w-dMmbB/josh-3.webp",
                "height": 400,
                "width": 400,
                "thumb": "https://bd-2.edkncdn.net/img/200x200/stores/64eece5330e4562e48de0b5a/product-square/1739336980234-YQsyyIcX8_KJa8w-dMmbB/josh-3.webp",
                "thumbHeight": 200,
                "thumbWidth": 200,
                "mime": "image/webp",
                "size": 124228,
                "oh": 400,
                "ow": 400,
                "aspectRatio": 1,
                "srcSize": 124228,
                "thumbSize": 0,
                "shop": "64eece5330e4562e48de0b5a",
                "createAt": "2025-02-12T05:09:41.623Z",
                "updateAt": "2025-03-12T10:59:11.428Z",
                "__v": 0,
                "id": "67ac2d15e18cebdef42ff28c"
              },
              "listPrice": 1165,
              "actualPrice": 1165
            },
            "productId": "67ac2d2ae18cebdef42ff4f9",
            "name": "Josh premium-trouser-grey-m",
            "slug": "josh-bj-ash-xl",
            "sku": "premium-trouser-grey-m",
            "listPrice": 1165,
            "actualPrice": 1165,
            "quantity": 1,
            "options": [],
            "thumbnail": "https://bd-2.edkncdn.net/img/200x200/stores/64eece5330e4562e48de0b5a/product-square/1739336980234-YQsyyIcX8_KJa8w-dMmbB/josh-3.webp",
            "mediaId": "67ac2d15e18cebdef42ff28c",
            "isBackorder": false,
            "isWithCourier": false,
            "isFreeShipping": false,
            "weight": null,
            "_id": "6811b8609021378d63f096ee",
            "id": "6811b8609021378d63f096ee"
          }
        ],
        "paymentMethod": "cod",
        "billingAddress": "Dhaka",
        "customerIpAddress": "27.147.163.77",
        "customerUserAgent": "Mozilla/5.0 (X11; Linux x86_64) AppleWebKit/537.36 (KHTML, like Gecko) Chrome/135.0.0.0 Safari/537.36",
        "inventoryReduced": false,
        "isTrash": false,
        "trackingID": "monik9mvkbu3awmy",
        "isCartRecovered": false,
        "shop": "64eece5330e4562e48de0b5a",
        "payments": [],
        "refunds": [],
        "createAt": "2025-04-30T05:42:56.921Z",
        "updateAt": "2025-04-30T05:42:56.979Z",
        "__v": 0,
        "id": "6811b8609021378d63f096ed"
      }
    ]
  }